<?xml version="1.0" encoding="UTF-8" standalone="no"?>
<!-- Created with Inkscape (http://www.inkscape.org/) -->

<svg
   width="200"
   height="48"
   viewBox="0 0 200 48"
   version="1.1"
   id="svg5"
   sodipodi:docname="logo.svg"
   inkscape:version="1.2.1 (9c6d41e410, 2022-07-14)"
   xmlns:inkscape="http://www.inkscape.org/namespaces/inkscape"
   xmlns:sodipodi="http://sodipodi.sourceforge.net/DTD/sodipodi-0.dtd"
   xmlns="http://www.w3.org/2000/svg"
   xmlns:svg="http://www.w3.org/2000/svg">
  <sodipodi:namedview
     id="namedview7"
     pagecolor="#ffffff"
     bordercolor="#000000"
     borderopacity="0.25"
     inkscape:showpageshadow="2"
     inkscape:pageopacity="0.0"
     inkscape:pagecheckerboard="0"
     inkscape:deskcolor="#d1d1d1"
     showgrid="false"
     inkscape:zoom="1.4142136"
     inkscape:cx="293.80287"
     inkscape:cy="-173.59471"
     inkscape:window-width="3440"
     inkscape:window-height="1363"
     inkscape:window-x="0"
     inkscape:window-y="0"
     inkscape:window-maximized="1"
     inkscape:current-layer="layer1"
     showguides="true" />
  <defs
     id="defs2" />
  <rect
     style="fill:#ffffff;stroke:#800000;stroke-width:2.04918"
     id="rect1206"
     width="45.950825"
     height="45.950821"
     x="1.0245876"
     y="1.0245895"
     rx="2"
     ry="2" />
  <g
     id="layer1">
    <g
       aria-label="V"
       id="text63"
       style="font-size:53.3333px;fill:#800000"
       transform="matrix(0.79308191,0,0,0.79308191,4.9660344,4.966035)">
      <path
         d="M 44.449798,4.6250105 Q 43.876882,4.885427 43.356049,5.0937602 42.835216,5.2500101 42.314383,5.5104266 41.3248,6.1354263 40.803967,6.5520927 q -0.46875,0.3645831 -1.145833,0.6770829 -0.260416,0.4687497 -0.989583,0.7291663 -0.312499,0.3645831 -0.624999,0.7291662 -0.3125,0.3124998 -0.677083,0.6770829 -0.104167,0.1562499 -0.15625,0.3645831 -0.05208,0.1562499 -0.3125,0.2083332 -0.3125,0.9895827 -0.520833,1.5104157 -0.15625,0.46875 -0.572916,0.729166 0.05208,0.677083 -0.364583,0.885416 -0.05208,0.625 -0.3125,1.40625 -0.260417,0.729166 -0.520833,1.302082 -0.104167,0.208333 -0.05208,0.364583 0.05208,0.15625 0,0.3125 -0.104167,0.416667 -0.3125,0.833333 -0.208333,0.364583 -0.208333,0.833333 -0.625,1.041666 -0.78125,2.291665 -0.15625,1.249999 -0.677083,2.239582 -0.260416,0.520833 -0.260416,0.989583 0.05208,0.416666 -0.364584,0.520833 0.208334,0.364583 0,0.729166 -0.208333,0.3125 -0.312499,0.677083 -0.15625,0.416666 -0.15625,0.885416 0,0.416667 -0.416667,0.625 -0.520833,1.458332 -0.781249,2.812498 -0.208333,1.302083 -0.729166,2.552082 0.104166,0.208333 0.05208,0.3125 -0.05208,0.05208 -0.05208,0.3125 -0.3125,0.312499 -0.520833,0.833332 -0.208334,0.520833 -0.208334,0.989583 -0.104166,0.260417 -0.364583,0.572916 -0.208333,0.260417 -0.3125,0.572917 -0.104166,0.15625 -0.104166,0.364583 0.05208,0.15625 0,0.3125 -0.3125,0.885416 -0.78125,1.718749 -0.416666,0.833333 -0.677083,1.666665 -0.15625,0.78125 -0.364583,0.989583 -0.208333,0.15625 -0.05208,0.520833 -0.208333,0.3125 -0.364583,0.78125 -0.15625,0.416666 -0.15625,0.781249 -0.05208,0.3125 -0.3125,0.78125 -0.208333,0.520833 -0.364583,0.885416 -0.520833,-0.05208 -1.093749,-0.208333 -0.416667,-0.625 -0.78125,-1.25 -0.364583,-0.624999 -0.937499,-1.145832 0.208333,-0.15625 0,-0.208333 -0.15625,-0.104167 -0.104167,-0.364584 -0.572916,-0.885416 -0.989583,-1.822915 -0.416666,-0.989583 -0.364583,-2.291665 -0.15625,-0.260417 -0.260416,-0.46875 -0.104167,-0.260417 -0.364583,-0.46875 0.260416,-0.208333 0.156249,-0.572916 -0.104166,-0.364583 -0.156249,-0.625 -0.46875,-0.260416 -0.677083,-0.833333 -0.208334,-0.624999 -0.520833,-0.937499 -0.15625,-1.510416 -0.78125,-3.020832 -0.416666,-0.104166 -0.677083,0.15625 -0.260416,0.208333 -0.572916,-0.05208 -0.05208,-0.572916 0.260416,-0.833333 0.3125,-0.260416 0.520833,-0.625 0,-0.677082 -0.364583,-1.145832 -0.364583,-0.46875 -0.260416,-0.989583 -0.46875,-0.364583 -0.416667,-0.416666 0.104167,-0.104167 0.104167,-0.364583 -0.3125,-0.104167 -0.416667,-0.3125 -0.104166,-0.208333 -0.156249,-0.46875 -0.05208,-0.260416 -0.15625,-0.46875 -0.05208,-0.260416 -0.364583,-0.364583 h -0.572917 q 0.15625,-0.520833 0.208333,-0.729166 0.104167,-0.260417 0.364584,-0.364583 -0.15625,-0.46875 -0.364584,-0.9375 Q 15.074816,22.229167 15.022732,21.5 q -0.260416,-0.416666 -0.468749,-0.729166 -0.208334,-0.364583 -0.260417,-0.937499 -0.208333,-0.3125 -0.520833,-0.46875 -0.3125,-0.15625 -0.46875,-0.46875 0.260417,-0.260416 0,-0.572916 -0.3125,0.05208 -0.468749,0 -0.104167,-0.05208 -0.416667,0.104167 -0.104166,-0.625 0.260417,-0.78125 0.364583,-0.208333 0.15625,-0.781249 -0.104167,-0.104167 -0.260417,-0.15625 -0.15625,-0.104167 -0.208333,-0.3125 0.260416,-0.572917 -0.208333,-1.09375 -0.416667,-0.572916 -0.833333,-0.885416 0.05208,-0.260416 0.208333,-0.364583 0.208333,-0.104166 0.3125,-0.3125 -0.05208,-0.520833 -0.05208,-0.781249 0.05208,-0.3125 -0.208333,-0.572916 0.05208,-0.78125 -0.15625,-0.677083 -0.208333,0.104166 -0.416666,0.15625 -0.3125,-0.3125 -0.3125,-0.46875 0.05208,-0.15625 -0.05208,-0.260417 0.572916,-0.364583 0.572916,-0.677083 0.05208,-0.312499 -0.416666,-0.364583 0.260416,-0.208333 0.05208,-0.5208328 Q 10.699818,9.2604244 10.803985,9.0000079 10.439402,8.843758 10.335235,8.3750083 10.178985,7.9062585 10.231068,7.5416754 10.074819,7.2812589 9.8664853,7.0208424 9.6060688,6.7604259 9.7102354,6.4479261 9.293569,6.0312597 8.9810692,5.5104266 8.616486,4.9895936 8.0435697,4.7291771 7.1060703,4.8333437 6.0644042,4.6250105 4.9706549,4.364594 4.1894054,4.4687606 3.8248222,4.364594 3.616489,4.0520942 3.3560725,3.7395944 3.6685723,3.3750113 q 1.0416661,-0.1041667 2.0833321,0.052083 0.9895828,0.1041666 2.0833321,0.2083332 0.6770829,0.1041666 1.4062492,0.1041666 0.6770829,0 1.4062493,0.052083 0.781249,0.1041666 1.562499,0.2083332 0.833333,0.1041666 1.406249,0.052083 0.9375,-0.052083 1.822916,-0.1041666 0.937499,-0.052083 1.770832,0 0.46875,0.052083 0.885416,-0.052083 0.46875,-0.1041666 0.9375,-0.1041666 0.989582,0 1.979165,-0.2083332 1.041666,-0.2083332 1.927082,0.052083 0.625,0.1041666 1.197916,0.052083 0.625,-0.1041666 1.145833,0.1562499 0.104166,0.5729163 -0.208333,0.7812495 -0.260417,0.2083332 -0.625,0.3645831 -0.3125,-0.2604165 -0.625,-0.3124998 -0.312499,-0.052083 -0.624999,0 -0.3125,0 -0.677083,0 -0.3125,0 -0.677083,-0.1562499 -0.104167,0.2604165 -0.260417,0.3645831 -0.15625,0.1041666 -0.260416,0.3124998 -0.260417,-0.1041666 -0.416667,0 -0.15625,0.052083 -0.260416,-0.052083 -0.520833,0.3645831 -0.729166,0.1041666 -0.3125,0.4166665 -0.208334,0.4166665 0.15625,-0.052083 0.05208,0.1562499 -0.104167,0 -0.3125,0.1041666 -0.208333,0.1041666 -0.364583,0 0.05208,0.7291662 -0.104167,0.8854161 -0.15625,0.1041666 -0.364583,0.3124998 -0.05208,0.7812495 0.208333,1.4583325 0.260417,0.520833 0.3125,1.0937493 0.104167,0.5208331 0.520833,0.6249991 -0.260416,0.3125 -0.104166,0.677083 0.208333,0.364584 0.260416,0.78125 0.46875,0.781249 0.833333,0.885416 0.05208,1.041666 0.104166,1.666666 0.104167,0.572916 0.572917,0.989582 0.05208,0.885417 0.364583,1.510416 0.3125,0.572917 0.364583,1.458333 0.677083,0.3125 0.46875,0.364583 -0.15625,0 -0.15625,0.208333 0.104166,0.104167 0.260416,0 0.208334,-0.104167 0.3125,0.05208 0.104167,0.208334 -0.104166,0.364583 -0.15625,0.15625 -0.260417,0.3125 0.05208,0.3125 0.3125,0.416667 0.260416,0.05208 0.520833,0.15625 -0.208333,0.260416 -0.208333,0.312499 0.05208,0 -0.05208,0.208334 0.572917,-0.15625 0.572917,-0.05208 0,0.05208 -0.104167,0.208334 -0.05208,0.104166 -0.15625,0.208333 -0.05208,0.104166 0.05208,0.260416 0.05209,0.208333 0.26042,0.208333 0.208333,-0.05208 0.3125,0.05208 0,0.468749 -0.260417,0.729166 0.15625,0.260416 0.46875,0.15625 0.3125,-0.104167 0.416666,0.260416 0,0.208334 -0.156249,0.260417 -0.104167,0.05208 -0.15625,0.260416 0,0.364584 0.208333,0.520833 0.260416,0.104167 0.46875,0.364584 -0.208334,0.416666 -0.104167,0.833332 0.104167,0.416667 0.520833,0.520833 0.15625,0.572917 0.260416,1.197916 0.104167,0.625 0.260417,1.197916 0.15625,0.572917 0.416666,1.041666 0.3125,0.416667 0.885417,0.625 -0.15625,0.625 -0.05208,0.677083 0.15625,0.05208 0.260417,0.15625 0,0.260416 -0.05208,0.520833 0,0.208333 0.104167,0.364583 0.208333,-0.05208 0.572916,-0.15625 0.416667,-0.104167 0.3125,-0.677083 0.3125,-0.46875 0.364583,-0.520833 0.05208,-0.104166 0.15625,-0.104166 0.989583,-2.812499 1.979166,-5.364581 0.989582,-2.604165 1.562499,-5.416663 0.260416,-0.416666 0.3125,-0.9375 0.104166,-0.572916 0.312499,-1.093749 0.104167,-0.3125 0.3125,-0.572916 0.260417,-0.3125 0.364583,-0.729166 0.15625,-0.46875 0.208334,-0.833333 0.05208,-0.364583 0.208333,-0.9375 0.416666,-0.729166 0.364583,-1.041666 -0.05208,-0.3125 0.05208,-0.572916 0.104167,-0.260417 0.208333,-0.416666 0.104167,-0.15625 0.15625,-0.364584 0.104167,-0.729166 0,-1.406249 Q 34.918554,9.364591 35.126887,8.6354248 35.02272,8.4791749 34.86647,8.2708417 34.71022,8.0625085 34.814387,7.8541752 34.501887,7.2812589 33.981054,6.9166758 33.460221,6.5520927 32.887305,6.2395929 32.314389,5.9270931 31.793556,5.5625099 31.272723,5.1979268 30.960223,4.6250105 q -0.416667,0.1041666 -0.833333,0 Q 29.762307,4.4687606 29.293557,4.4166773 29.18939,4.2083441 29.085224,3.9479276 28.981057,3.6354278 29.033141,3.4791779 q 0.05208,-0.15625 0.208333,-0.15625 0.208333,-0.052083 0.3125,-0.1562499 0.364583,0.2604166 1.041666,0.2604166 0.677083,-0.052083 0.989582,0.3645831 1.09375,-0.1562499 2.343749,0.052083 1.302083,0.2083332 2.447915,0 0.989583,0.1562499 2.031249,0.1562499 1.041666,-0.052083 2.083332,-0.1041666 1.041666,-0.1041666 2.031249,-0.1041666 0.989583,-0.052083 1.927082,0.1041666 0.104167,0.2604165 0,0.3645831 -0.104167,0.1041666 0,0.3645834 z m -4.635414,0.1562499 q -0.104166,-0.1041666 -0.260416,0 -0.15625,0.1041666 -0.364584,0 0.208334,0.2083332 0.364584,0.2083332 0.15625,-0.052083 0.260416,-0.2083332 z m -3.177081,0.7812495 q -0.260417,0 -0.416667,0.1041667 -0.104166,0.052083 -0.3125,-0.1041667 0,0.3124999 -0.312499,0.4166665 -0.260417,0.1041666 -0.677083,0.2083332 0,0.3124998 0.104166,0.520833 0.104167,0.1562499 0.208334,0.3645831 0.468749,-0.7291662 0.833332,-0.8854161 0.416667,-0.2083332 0.572917,-0.6249997 z m 1.458332,0.9895828 q -0.3125,-0.052083 -0.416666,0.1562499 -0.05208,0.1562499 -0.364583,0.1041666 -0.260417,0.4687497 -0.729167,0.6249996 -0.468749,0.1562499 -0.885416,0.4166664 -0.104166,0.4166665 0.05208,0.8333329 0.156249,0.4166664 -0.104167,0.6770829 0.15625,0.052083 0.15625,0.2083332 0,0.1041666 -0.05208,0.2604165 0,0.1562499 -0.05208,0.3125003 0,0.156249 0.15625,0.208333 0.15625,-0.260417 0.3125,-0.46875 0.208333,-0.2604165 0.260416,-0.5729163 -0.104166,-0.2604165 -0.208333,-0.6770829 0.364583,-0.6249996 0.989583,-1.0416661 0.625,-0.4687497 0.885416,-1.041666 z M 34.397721,4.7291771 q -0.520833,-0.2083332 -1.197916,-0.2083332 -0.625,0 -1.145833,0.1041666 0.260417,0.2083332 0.46875,0.3124998 0.208333,0.052083 0.46875,0.2083332 0.260416,-0.2604165 0.729166,-0.2083332 0.468749,0.052083 0.677083,-0.2083332 z M 18.564397,10.145841 q -0.208333,0.156249 -0.520833,0.208333 -0.260417,0 -0.364583,0.104166 0.208333,0.260417 0.520833,0.104167 0.312499,-0.15625 0.364583,-0.416666 z M 18.356064,9.7291741 q -0.572917,0.2083332 -0.78125,0.2604165 -0.520833,0.2083334 -0.572916,0.3124994 -0.05208,0.104167 -0.05208,0.260417 0.104167,0.104167 0.260417,0.05208 0.208333,-0.05208 0.3125,-0.104166 0.520833,-0.364583 0.833333,-0.7812499 z M 17.939397,4.9895936 q -0.260416,0.052083 -0.260416,-0.1562499 0,-0.2083332 -0.208334,-0.2083332 -0.208333,0.6249996 -0.364583,0.7291662 -0.104166,0.052083 -0.260416,0.1562499 -0.05208,-0.4687497 0,-0.520833 0.104166,-0.052083 0.15625,-0.2083332 -0.15625,-0.1041666 -0.260417,-0.052083 -0.104166,0.052083 -0.208333,0.1562499 -0.05208,0.1041666 -0.15625,0.2083332 -0.104167,0.1041666 -0.260416,0.052083 0,0.2604165 -0.3125,0.3645831 -0.260417,0.1041666 -0.416667,-0.1041666 -0.416666,0.1562499 -0.416666,0.2604166 0,0.052083 -0.104167,0.052083 -0.104166,-0.2083333 -0.364583,-0.2083333 -0.260416,-0.052083 -0.520833,-0.052083 0.625,-0.2083332 0.989583,-0.1562499 0.364583,0.052083 0.625,-0.1562499 -0.260417,-0.2604165 -0.520833,-0.1041666 -0.260417,0.1562499 -0.520833,0 -0.05208,-0.052083 -0.208334,-0.1041666 -0.104166,-0.052083 -0.3125,-0.1562499 -0.312499,0.2604165 -0.572916,0.3124998 -0.208333,0.052083 -0.572916,-0.1041666 0.104166,0.2604165 0.05208,0.3645831 -0.05208,0.052083 -0.15625,0.052083 -0.104166,0 -0.208333,0 -0.05208,0 0,0.1562499 Q 12.314401,5.4583433 12.418567,5.3541767 12.522734,5.1979268 12.522734,4.9895936 12.106067,4.9375103 11.845651,5.0937602 11.585234,5.1979268 11.168568,5.1979268 11.116485,5.0416769 10.960235,4.9375103 10.856068,4.8333437 10.751901,4.7291771 10.699818,4.364594 10.283152,4.4166773 q -0.46875,0.052083 -0.989583,0 0.1041666,0.4166664 0.3645831,0.6249996 0.2604165,0.1562499 0.5208329,0.3645831 0.3125,-0.3645831 0.364583,-0.4166664 0.104167,-0.1041666 0.208333,-0.052083 0.05208,0.2604165 0.208334,0.2604165 0.15625,0 0.15625,0.3124998 -0.208334,0 -0.416667,0.052083 -0.15625,0 -0.416666,0.052083 0.104166,0.3645832 0.104166,0.4687498 0,0.1041666 0.104167,0.1562499 0.520833,0.520833 0.729166,0.4166664 0,0.2604165 -0.05208,0.3645831 -0.05208,0.052083 -0.104167,0.3124998 0.260417,0.520833 0.833333,0.8854162 -0.46875,0.1041666 -0.416666,0.2083332 0.05208,0.052083 -0.15625,0.2604165 0.104166,0.1041666 0.208333,0.2083332 0.104167,0.1041666 0.104167,0.3645831 0.468749,0 0.572916,0 -0.260417,0.6249996 -0.15625,0.8854169 0.15625,0.208333 0.572916,0.104166 0.15625,-0.3645833 0.260417,-0.4166666 0.15625,-0.1041666 0.416666,0 0.208333,-0.4687497 0.520833,-0.520833 0.416667,-0.2604165 0.625,-0.4166664 0.260416,-0.2083332 0.625,0 0,-0.2083332 0.05208,-0.520833 0.05208,-0.3124998 0.208333,-0.4166664 0.416666,0.3124998 0.46875,0.4166664 0.364583,0 0.520833,-0.2604165 -0.208333,-0.4687498 0.416666,-0.5208331 0.625,-0.052083 0.885416,-0.052083 -0.520833,-0.2604165 -0.468749,-0.4687497 0.05208,-0.2083332 0,-0.3124998 0.260416,0.1562499 0.416666,0 0.208333,-0.2083332 0.3125,-0.4166664 L 17.053981,6.2916762 Q 16.845648,6.5000094 16.689398,6.4479261 16.585231,6.3437595 16.481065,6.2395929 17.106064,5.8750098 17.314398,5.7187599 17.522731,5.5104266 17.887314,5.4583433 Z m -0.729166,5.8854134 q -0.416666,-0.208333 -0.729166,-0.3125 0.104166,0.364583 0.05208,0.520833 0,0.15625 0,0.3125 0.625,-0.15625 0.677083,-0.520833 z m 1.770832,0.885416 q -0.520833,-0.104167 -0.989583,0.260416 -0.468749,0.3125 -0.729166,0.677083 -0.3125,0.15625 -0.416666,0.3125 -0.104167,0.104167 -0.208333,0.208333 -0.104167,0.104167 -0.15625,0.208334 -0.05208,0.104166 0.05208,0.260416 0.885416,-0.677083 1.770832,-1.041666 0,-0.208333 0.104167,-0.260416 0.15625,-0.104167 0.260416,-0.104167 0.15625,-0.05208 0.208334,-0.15625 0.104166,-0.104167 0.104166,-0.364583 z m -2.656248,-0.572916 q -0.104167,-0.3125 -0.3125,-0.260417 -0.15625,0 -0.260417,0 0,0.364583 0.15625,0.3125 0.15625,-0.104167 0.416667,-0.05208 z m 2.968748,1.874998 q -0.46875,0.260417 -0.989583,0.46875 -0.520833,0.15625 -0.624999,0.677083 0.15625,0 0.260416,-0.05208 0.104167,-0.104167 0.208333,-0.208333 0.104167,-0.104167 0.208334,-0.15625 0.104166,-0.05208 0.260416,0.104166 0,-0.416666 0.260417,-0.468749 0.312499,-0.05208 0.416666,-0.364584 z M 17.99148,8.8958413 q 0.05208,-0.3645831 -0.104166,-0.520833 -0.104167,-0.1562499 0,-0.5208331 -0.572916,0.3124999 -0.833333,0.3124999 -0.260416,0 -0.572916,0.052083 -0.05208,0.3645831 -0.625,0.3645831 -0.520833,0.3124998 -0.46875,0.4687497 0.104167,0.1041666 0,0.2604165 -0.15625,-0.1562499 -0.260416,-0.1041666 -0.104167,0.052083 -0.260417,0.1562499 -0.104166,0.1041666 -0.208333,0.2083332 -0.104166,0.1041666 -0.260416,0 -0.625,0.3645831 -0.885417,0.7291661 -0.208333,0.3125 -0.729166,0.364584 -0.104166,0.364583 -0.208333,0.364583 -0.05208,-0.05208 -0.260416,0 0,0.260416 0.208333,0.572916 0.3125,-0.05208 0.468749,-0.260416 0.208334,-0.260417 0.625,-0.260417 0.15625,-0.416666 0.520833,-0.520833 0.416667,-0.104167 0.625,-0.46875 0.572916,-0.2604166 1.041666,-0.677083 0.468749,-0.4687497 1.093749,-0.7291662 0.05208,-0.2604165 0.260417,-0.3645831 0.208333,-0.1562499 0.468749,-0.052083 -0.885416,1.1979159 -2.343748,1.7187489 0,0.2083334 -0.104167,0.3124994 -0.104166,0.05208 -0.260416,0.104167 -0.15625,0 -0.3125,0.05208 -0.104167,0.05208 -0.104167,0.208334 0.364583,0.104166 0.572917,-0.208334 0.208333,-0.312499 0.468749,-0.05208 -0.364583,0.260417 -0.729166,0.416666 -0.364583,0.15625 -0.625,0.572917 -0.260416,0.104166 -0.572916,0.208333 -0.3125,0.104167 -0.572916,0.260417 -0.208333,0.104166 -0.364583,0.364583 -0.104167,0.208333 0,0.572916 0.260416,0.104167 0.364583,0 0.15625,-0.104167 0.260416,0 0.104167,-0.46875 0.46875,-0.625 0.364583,-0.208333 0.78125,-0.312499 -0.05208,-0.260417 0.312499,-0.572917 0.416667,-0.364583 0.677083,-0.416666 0.364583,-0.15625 0.46875,-0.208333 0.15625,-0.05208 0.05208,-0.260417 0.520833,-0.260416 0.46875,-0.364583 -0.937499,0.3125 -0.937499,0.05208 0.677082,-0.2604163 1.302082,-0.5208328 0.625,-0.2604165 1.093749,-0.6770829 z m 2.291666,6.3541627 q -0.260417,-0.3125 -0.677083,-0.05208 -0.364583,0.208333 -0.729166,0.260416 0,0.46875 -0.364584,0.46875 0.46875,0 0.885417,-0.208333 0.468749,-0.208333 0.885416,-0.46875 z m -3.958331,-3.749998 q -0.416667,0.260417 -0.78125,0.15625 -0.364583,-0.104166 -0.624999,0.208334 0.208333,0.520833 0.312499,0.520833 0.104167,0 0.208334,0.05208 0.416666,-0.625 0.624999,-0.625 0.208333,-0.05208 0.260417,-0.3125 z m 1.354166,3.072915 q -0.104167,-0.104166 -0.416667,-0.15625 -0.260416,-0.05208 -0.260416,0.260417 0.15625,0.05208 0.364583,0.104166 0.260416,0 0.3125,-0.208333 z m 3.281248,2.343749 q -0.05208,-0.15625 -0.104167,-0.260417 -0.05208,-0.15625 -0.05208,-0.364583 -0.416667,0.15625 -1.09375,0.520833 -0.624999,0.364583 -0.520833,0.520833 -0.416666,0.15625 -0.624999,0.46875 0.781249,-0.3125 1.354166,-0.416666 0.624999,-0.15625 1.041666,-0.46875 z m -5.885413,-4.218748 q -0.208334,-0.520833 -0.572917,-0.416666 -0.3125,0.05208 -0.208333,0.520833 0.46875,-0.364583 0.572916,-0.15625 0.104167,0.15625 0.208334,0.05208 z m 4.791663,1.458333 q -0.15625,-0.104167 -0.15625,-0.3125 0,-0.260417 -0.156249,-0.364583 -0.260417,0.104166 -0.625,0.364583 -0.3125,0.260417 -0.572916,0.15625 -0.15625,0.364583 -0.46875,0.520833 -0.260417,0.15625 -0.46875,0.416666 -0.416666,-0.104166 -0.572916,0.15625 -0.15625,0.260417 -0.46875,0.46875 -0.416666,0.15625 -0.572916,0.208333 -0.15625,0.05208 -0.208333,-0.05208 0.260416,-0.104167 0.208333,-0.364583 -0.05208,-0.260417 0.260416,-0.3125 -0.729166,0.05208 -1.406249,0.46875 -0.625,0.416666 -1.145833,0.937499 0.15625,0.260417 0.416667,0.416667 0.520833,0.208333 0.572916,0.364583 0.05208,0.104166 0.104167,0 0.364583,-0.364583 0.885416,-0.572917 0.520833,-0.260416 1.041666,-0.520833 -0.729166,0.677083 -1.354166,0.9375 -0.572916,0.260416 -0.989583,0.833333 0.416667,0.208333 0.677083,0.05208 0.260417,-0.208333 0.364583,-0.46875 0.625,-0.15625 1.041666,-0.46875 0.416667,-0.364583 0.78125,-0.781249 0.208333,0 0.364583,0 0.208333,0 0.46875,-0.104167 0.15625,-0.208333 0.364583,-0.416666 0.208333,-0.260417 0.364583,-0.416667 -0.572916,-0.05208 -0.781249,0.260417 -0.208334,0.3125 -0.729167,0.3125 -0.572916,0.208333 -0.572916,0.104166 0.104167,-0.15625 0.208333,-0.260416 0.15625,-0.104167 0.260417,-0.260417 0.3125,0.15625 0.468749,0 0.208334,-0.15625 0.416667,-0.364583 0.624999,-0.260416 1.145833,-0.364583 0.572916,-0.15625 0.833332,-0.572916 z m -1.302082,3.802081 q -0.104167,0.104166 -0.260417,0.15625 -0.104166,0.05208 -0.364583,0 0.416667,0.104166 0.520833,0.104166 0.15625,0 0.104167,-0.260416 z m -2.968748,-5.05208 q -0.104167,0.208333 -0.364584,0.312499 -0.208333,0.05208 -0.416666,-0.15625 0,0.3125 -0.104167,0.416667 -0.104166,0.05208 -0.364583,0 -0.05208,0.3125 -0.416666,0.520833 -0.364583,0.208333 -0.520833,0.104167 -0.05208,0.260416 -0.3125,0.416666 -0.208333,0.104167 -0.15625,0.520833 0.260417,0.05208 0.3125,0.260416 0.05208,0.15625 -0.05208,0.416667 0.208333,0.104166 0.364583,-0.104167 0.15625,-0.260416 0.520833,-0.05208 0.208333,-0.520833 0.416666,-0.46875 0.208333,0.05208 0.3125,-0.208333 0.05208,-0.260416 0.05208,-0.520833 0.05208,-0.3125 0.416667,-0.260416 0.15625,-0.416667 0.15625,-0.625 0.15625,-0.05208 0.260416,-0.260417 0.104167,-0.208333 -0.104166,-0.312499 z m 6.041663,5.624996 q -0.364583,-0.624999 -0.46875,-0.677083 -0.833333,0.416667 -1.406249,0.9375 -0.572917,0.520833 -1.302083,0.937499 -0.989583,0.520833 -1.406249,1.406249 0.729166,-0.208333 1.197916,-0.677083 0.520833,-0.520833 1.406249,-0.624999 0.104167,-0.15625 0.15625,-0.260417 0.05208,-0.15625 0.208333,-0.208333 0.260417,-0.104167 0.416667,-0.208333 0.208333,-0.15625 0.468749,-0.208333 0.260417,-0.104167 0.46875,-0.15625 0.208333,-0.104167 0.260417,-0.260417 z m 0.885416,4.114581 q -0.104167,-0.15625 -0.3125,-0.15625 -0.15625,0 -0.260417,0.260417 0.104167,0.104166 0.3125,0.05208 0.208333,-0.05208 0.260417,-0.15625 z m 1.249999,1.197916 q -0.364583,-0.104167 -0.572916,0.104167 -0.15625,0.208333 -0.104167,0.416666 0.260417,0.05208 0.260417,-0.104167 0.05208,-0.156249 0.312499,-0.104166 z m -3.437498,-6.249996 q -0.364583,0.208333 -0.833333,0.3125 -0.416666,0.104166 -0.468749,0.520833 -0.677083,0.104166 -0.78125,0.312499 -0.05208,0.15625 -0.3125,0.05208 -0.104166,0.208333 -0.416666,0.416666 -0.3125,0 -0.572917,0.260417 -0.260416,0.208333 -0.520833,0.416666 -0.208333,0.15625 -0.468749,0.15625 -0.260417,0 -0.520833,-0.416666 0.572916,-0.260417 0.937499,-0.729167 0.416667,-0.468749 1.145833,-0.572916 0.104166,-0.520833 0.468749,-0.677083 0.416667,-0.15625 0.625,-0.572916 0.520833,-0.3125 0.9375,-0.520833 0.416666,-0.260417 0.624999,-0.677083 -1.406249,0.572916 -2.864581,1.354166 -1.40625,0.781249 -2.604166,1.718749 0.104167,0.05208 0.104167,0.260416 0,0.208333 -0.05208,0.3125 0.208333,0.104167 0.3125,0.364583 0.104166,0.208333 0.208333,0.46875 0.104166,0.260416 0.208333,0.520833 0.15625,0.208333 0.416666,0.260416 0.260417,0 0.3125,-0.15625 0.104167,-0.156249 0.3125,0.05208 0.208333,-0.416667 0.46875,-0.416667 0.104166,-0.208333 0.208333,-0.364583 0.104167,-0.208333 0.364583,-0.260416 0.729166,-0.729167 1.458333,-0.989583 0.572916,-0.729166 0.885416,-0.833333 0.312499,-0.15625 0.416666,-0.572916 z m 1.510416,1.927082 q -0.625,-0.364583 -0.9375,-0.104167 -0.260416,0.260417 -0.833332,0.3125 -0.05208,0.3125 -0.3125,0.364583 -0.208333,0.05208 -0.520833,0.05208 -1.041666,0.781249 -1.718749,1.197916 -0.625,0.416666 -1.354166,0.833332 0.05208,0.416667 0,0.625 -0.05208,0.208333 0.208333,0.364583 1.406249,-0.781249 2.604165,-1.614582 1.197916,-0.885416 2.395832,-1.927082 z m 0.937499,2.083332 q -0.520833,0 -0.677083,0.260417 -0.104166,0.260416 -0.572916,0.260416 0.416666,-0.416666 0.364583,-0.416666 0,0 0,-0.104167 0.416667,-0.05208 0.520833,-0.625 -0.3125,-0.104166 -0.520833,0 -0.15625,0.05208 -0.3125,0.208334 -0.15625,0.15625 -0.364583,0.312499 -0.208333,0.104167 -0.572916,0.05208 -0.05208,0.260416 -0.3125,0.364583 -0.208333,0.05208 -0.3125,0.208333 0.15625,-0.625 0.520833,-0.729166 0.416667,-0.15625 0.78125,-0.260417 -0.104167,-0.312499 0.208333,-0.364583 0.364583,-0.05208 0.520833,-0.208333 -0.46875,-0.104167 -0.885416,0.05208 -0.416667,0.15625 -0.833333,0.416667 -0.572916,0.364583 -0.729166,0.520833 -0.104167,0.15625 -0.364583,0.260416 -0.260417,0.15625 -0.572917,0.416667 -0.312499,0.260416 -0.364583,0.520833 0.3125,-0.260417 0.625,-0.416667 0.3125,-0.15625 0.625,-0.3125 -0.416667,0.833333 -0.9375,0.833333 -0.104167,0.3125 -0.520833,0.520833 -0.364583,0.15625 -0.729166,0.364583 -0.364583,0.15625 -0.572916,0.46875 -0.208334,0.260417 0.104166,0.729166 0.625,-0.260416 1.093749,-0.781249 0.46875,-0.520833 1.09375,-0.260417 -0.416667,0.104167 -0.46875,0.260417 0,0.104166 -0.520833,0.05208 0,0.260417 -0.208333,0.46875 -0.15625,0.15625 -0.416667,0.104166 0.208334,0.260417 0.260417,0.364584 0.104167,0.05208 0.3125,0 0.208333,-0.364584 0.468749,-0.520833 0.3125,-0.15625 0.572917,-0.104167 -0.104167,0.260416 -0.416667,0.260416 -0.260416,0 -0.364583,0.15625 -0.104166,0.260417 -0.468749,0.46875 -0.3125,0.15625 -0.416667,0.520833 0.729166,-0.104166 1.145833,-0.520833 0.416666,-0.46875 0.833333,-0.937499 0.364583,0 0.624999,-0.15625 0.3125,-0.15625 0.572917,-0.3125 0.260416,-0.208333 0.520833,-0.364583 0.312499,-0.208333 0.729166,-0.208333 0,-0.46875 -0.208333,-0.364583 -0.208334,0.05208 -0.3125,-0.15625 -0.3125,0.260416 -0.3125,0.468749 0,0.15625 -0.208333,0.104167 -0.3125,-0.416666 -0.520833,-0.625 0.416666,0.05208 0.677083,0 0.3125,-0.104166 0.729166,-0.05208 0.364583,-0.520833 0.260416,-0.520833 -0.05208,0 -0.05208,-0.104167 0.208333,-0.15625 0.520833,-0.208333 0.3125,-0.05208 0.364583,-0.364583 z m 2.812499,7.499996 q -0.15625,-0.260417 -0.3125,-0.104167 -0.104167,0.104167 -0.364583,0.104167 -0.104167,0.312499 -0.15625,0.416666 -0.05208,0.104167 0.15625,0.260417 0.15625,-0.15625 0.364583,-0.260417 0.208333,-0.15625 0.3125,-0.416666 z m -0.989583,0.572916 q -0.364583,0.104167 -0.677083,0.364583 -0.3125,0.208333 -0.3125,0.520833 0.364583,-0.364583 0.9375,-0.46875 z m -6.979163,-6.718746 q -0.260416,0.104167 -0.520833,0.208333 -0.208333,0.104167 -0.364583,0.3125 0.260417,0.05208 0.3125,-0.05208 0.104167,-0.15625 0.364583,-0.05208 z m 3.802081,1.562499 q -0.312499,0 -0.677083,0.260416 -0.312499,0.260417 -0.572916,0.520834 -0.677083,0.260416 -1.145832,0.729166 -0.416667,0.416666 -1.09375,0.677083 0.05208,0.260416 -0.104166,0.312499 -0.104167,0.05208 -0.05208,0.260417 0.520833,-0.3125 0.9375,-0.3125 0.416666,-0.46875 0.781249,-0.885416 0.416667,-0.416666 0.833333,-0.3125 0.208333,-0.416666 0.572916,-0.572916 0.416667,-0.208333 0.520833,-0.677083 z m 3.802081,3.958331 q -0.104166,-0.208333 -0.260416,-0.208333 -0.104167,0 -0.260417,0.05208 -0.156249,0.05208 -0.312499,0.15625 -0.15625,0.104167 -0.3125,0.15625 -0.05208,-0.520833 0.05208,-0.520833 0.15625,0 0.208333,-0.104167 -0.15625,-0.104166 -0.312499,0.05208 -0.15625,0.156249 -0.416667,0.05208 -0.05208,0.208333 -0.208333,0.364583 -0.15625,0.104167 -0.260417,0.260416 0.260417,0.05208 0.3125,-0.05208 0.05208,-0.15625 0.3125,-0.104166 -0.260416,0.677082 -0.46875,0.729166 -0.15625,0 -0.3125,0 -0.364583,0.364583 -0.677082,0.624999 -0.3125,0.208334 -0.572917,0.46875 -0.260416,0.364583 -0.364583,0.364583 -0.104166,-0.05208 -0.364583,0 -0.05208,0.364583 -0.364583,0.260417 -0.3125,-0.104167 -0.572916,0.104166 -0.104167,-0.364583 0,-0.572916 0.156249,-0.208333 0.312499,-0.416666 0.416667,-0.104167 0.677083,-0.364583 0.3125,-0.260417 0.572917,-0.520834 0.260416,-0.260416 0.572916,-0.468749 0.3125,-0.260417 0.781249,-0.3125 0.05208,-0.3125 0.260417,-0.520833 0.260417,-0.208333 0.520833,-0.364583 0.3125,-0.208333 0.520833,-0.416667 0.260417,-0.260416 0.3125,-0.677083 -0.520833,0.208334 -0.9375,0.46875 -0.416666,0.260417 -0.520833,-0.3125 0.78125,0.3125 0.677083,0.05208 -0.05208,-0.260417 0,-0.572917 0.364583,-0.15625 0.364583,-0.208333 0.05208,-0.104166 0.260417,-0.104166 0.104167,-0.3125 -0.05208,-0.364584 -0.15625,-0.104166 -0.208334,-0.312499 -0.260416,0.104166 -0.468749,0.260416 -0.15625,0.104167 -0.46875,0.104167 0.05208,0.416666 -0.208333,0.468749 -0.208333,0.05208 -0.46875,0.104167 l -0.364583,0.625 q -0.520833,0.416666 -0.833333,0.468749 0,-0.520833 0.104167,-0.624999 0.260416,0 0.364583,-0.15625 0.15625,-0.15625 0.260416,-0.3125 0.104167,-0.15625 0.260417,-0.260416 0.208333,-0.104167 0.572916,-0.05208 0.208333,-0.364583 0.3125,-0.468749 0.15625,-0.15625 0.416666,-0.208334 -0.468749,-0.260416 -0.885416,0 -0.364583,0.260417 -0.781249,0.520833 -0.364583,0.260417 -0.78125,0.520833 -0.364583,0.208334 -0.885416,0.260417 -0.416666,0.520833 -1.041666,0.989583 -0.572916,0.468749 -1.302083,0.364583 0.104167,0.208333 0.15625,0.468749 0.05208,0.260417 0.208334,0.46875 0.260416,-0.05208 0.364583,-0.208333 0.15625,-0.15625 0.468749,-0.05208 0.05208,-0.416667 0.3125,-0.46875 0.3125,-0.104167 0.572917,-0.3125 0,-0.260416 0.312499,-0.416666 0.364583,-0.15625 0.572917,-0.364583 0.208333,0.677083 -0.15625,0.937499 -0.3125,0.208333 -0.520833,-0.05208 -0.520833,0.416666 -0.46875,0.468749 0.104167,0.05208 0.05208,0.208334 -0.260416,0.104166 -0.364583,0.312499 -0.104166,0.15625 -0.468749,0.104167 0.05208,0.364583 -0.208334,0.364583 -0.260416,-0.05208 -0.260416,0.208333 0.572916,-0.104166 0.989583,-0.15625 0.416666,-0.05208 0.729166,-0.312499 0.520833,-0.3125 0.416666,-0.3125 -0.104166,-0.05208 -0.05208,-0.15625 0.15625,-0.05208 0.260416,-0.208333 0.15625,-0.15625 0.3125,-0.05208 -0.15625,0.260417 -0.364583,0.520833 -0.15625,0.260417 -0.572916,0.208334 -0.104167,0.572916 -0.625,0.312499 -0.208333,0.208334 -0.3125,0.46875 -0.104166,0.260417 -0.312499,0.416667 0.104166,0.729166 0.208333,1.458332 0.15625,0.729166 0.624999,1.145833 0.260417,-0.260417 0.625,-0.572917 0.364583,-0.364583 0.729166,-0.364583 0.15625,-0.468749 0.416667,-0.624999 0.260416,-0.208334 0.572916,-0.572917 0.15625,-0.104166 0.416666,-0.208333 0.260417,-0.15625 0.46875,-0.208333 0.46875,-0.416666 0.416667,-0.260417 -0.05208,0.104167 0.104166,0 0.104167,-0.156249 0.15625,-0.260416 0.104167,-0.15625 0.15625,-0.364583 0.260416,-0.416667 0.625,-0.520833 0.416666,-0.104167 0.677082,-0.3125 z m 0.729167,1.718749 q -0.885416,-0.15625 -1.562499,0.46875 -0.677083,0.572916 -1.458333,0.989582 -0.364583,0.46875 -0.416666,0.364584 0,-0.104167 -0.104167,-0.104167 0,0.416666 -0.364583,0.364583 -0.3125,-0.104167 -0.520833,0.104167 -0.3125,0.520833 -0.885416,0.833332 -0.520833,0.260417 -0.520833,0.833333 0.260416,0.104167 0.416666,-0.15625 0.208333,-0.312499 0.416667,-0.468749 1.041666,-0.364583 1.718749,-1.041666 0.729166,-0.729167 1.718749,-1.197916 0.781249,-0.416667 0.885416,-0.729167 0.15625,-0.312499 0.677083,-0.260416 z m 0.781249,0.989583 q -0.3125,-0.15625 -0.572916,-0.05208 -0.208333,0.05208 -0.416667,0.208334 -0.156249,0.156249 -0.364583,0.312499 -0.208333,0.15625 -0.416666,0.208334 -0.208333,0.416666 -0.625,0.520833 -0.416666,0.104166 -0.572916,0.468749 -0.729166,0.3125 -1.302083,0.78125 -0.572916,0.416666 -1.041666,0.937499 -0.416666,0.104167 -0.572916,0.46875 0.208333,0.364583 0.364583,0.885416 0.104167,-0.260416 0.260417,-0.260416 0.208333,0 0.3125,0 0,-0.260417 0.312499,-0.46875 0.364583,-0.208333 0.78125,-0.3125 0.520833,-0.729166 1.458332,-1.249999 0.989583,-0.572916 1.770833,-1.145833 0.520833,-0.104166 0.624999,-0.468749 0.15625,-0.416667 0,-0.833333 z m 1.458333,2.604165 q -0.625,0.104166 -0.677083,0.208333 0,0.05208 -0.104167,0.15625 -0.364583,0.364583 -0.781249,0.46875 -0.416667,0.104166 -0.572917,0.416666 -0.260416,0.15625 -0.520833,0.520833 -0.260416,0.364583 -0.833333,0.208333 -0.364583,0.78125 -1.041666,1.354166 -0.677083,0.572916 -1.093749,1.197916 0.520833,-0.364583 0.9375,-0.677083 0.468749,-0.364583 1.041666,-0.572916 0.156249,-0.260417 0.416666,-0.520833 0.3125,-0.260417 0.677083,-0.208333 0.260416,-0.364584 0.677083,-0.625 0.416666,-0.260417 0.781249,-0.520833 0.416667,-0.260417 0.677083,-0.572916 0.3125,-0.364583 0.416667,-0.833333 z m -0.677083,-0.677083 q -0.104167,0 -0.3125,-0.05208 -0.208333,-0.05208 -0.364583,0.05208 -0.625,0.3125 -1.302083,0.937499 -0.624999,0.572917 -1.354166,0.78125 0.104167,0.15625 -0.104166,0.260416 -0.15625,0.104167 -0.416667,0.05208 -0.104166,0.208333 -0.260416,0.416666 -0.104167,0.15625 -0.364583,0.15625 -0.625,0.364583 -0.9375,0.729166 -0.312499,0.364583 -0.729166,0.625 0.05208,0.572916 0.3125,1.093749 0.46875,0 0.572916,-0.416666 0.15625,-0.416667 0.572917,-0.416667 0.677083,-0.572916 0.989582,-1.041666 0.3125,-0.520833 0.833333,-0.520833 0.208333,-0.260416 0.208333,-0.364583 0,-0.15625 0.208334,-0.208333 0.520833,-0.3125 0.624999,-0.46875 0.15625,-0.208333 0.416667,-0.15625 -0.104167,0 0,-0.104166 0.104166,-0.15625 0.260416,-0.3125 0.15625,-0.15625 0.3125,-0.3125 0.208333,-0.15625 0.260416,-0.208333 0.15625,-0.104167 0.364584,-0.15625 0.260416,-0.104167 0.208333,-0.364583 z m -0.833333,4.010414 q -0.572916,0.729166 -1.197916,1.406249 -0.625,0.625 -1.041666,1.510416 0.15625,0.520833 0.05208,0.572916 -0.05208,0 -0.15625,0.05208 0.05208,0.3125 -0.208333,0.3125 -0.260416,0 -0.364583,0.156249 -0.260416,-0.208333 -0.260416,-0.729166 0,-0.572916 0.364583,-0.833333 0.05208,-0.260416 0.312499,-0.677083 0.3125,-0.416666 0.729167,-0.416666 0,-0.625 0.312499,-0.885416 0.3125,-0.3125 0.572917,-0.625 -0.260417,-0.208333 -0.572917,0 -0.260416,0.208333 -0.572916,0.625 -0.364583,0.46875 -0.572916,0.520833 -0.15625,0 -0.416667,0.104166 -0.260416,0.520834 -0.885416,0.729167 -0.624999,0.208333 -0.729166,0.729166 -0.05208,0.3125 0.364583,0.885416 0.416667,0.520833 0.520833,0.78125 0.104167,0.260416 0.15625,0.312499 0.104167,0.05208 0.208333,0.260417 0.15625,0.677083 0.46875,0.885416 0.3125,0.208333 0.416666,0.416667 0.05208,-0.364584 0.260417,-0.625 0.208333,-0.260417 0.364583,-0.46875 0.208333,-0.260416 0.260417,-0.520833 0.104166,-0.260416 -0.104167,-0.677083 0.208333,-0.15625 0.260416,-0.260416 0.104167,-0.104167 0.3125,-0.104167 0.416667,-0.46875 0.520833,-1.197916 0.104167,-0.781249 0.520833,-1.197916 -0.05208,-0.364583 0.15625,-0.572916 0.208333,-0.260417 -0.05208,-0.46875 z M 15.856065,7.3854255 q -0.416666,-0.3645831 -0.3125,-0.3124998 0.15625,0 0.05208,-0.2083332 0.260416,0.2604165 0.260416,0.520833 z M 14.866482,7.645842 q -0.15625,0.1041666 -0.260416,0.2604165 -0.104167,0.1041667 -0.364583,0.15625 0.05208,-0.2604166 0.208333,-0.3124999 0.208333,-0.052083 0.416666,-0.1041666 z m -1.249999,1.4583325 q -0.15625,-0.052083 -0.3125,-0.052083 -0.15625,-0.052083 -0.260416,-0.1562499 0.364583,0 0.468749,0.052083 0.104167,0 0.104167,0.1562499 z M 21.376895,22.125 q 0.05208,0.3125 -0.15625,0.364583 -0.208333,0 -0.260416,0.260417 -0.15625,-0.46875 0,-0.416667 0.15625,0 0.208333,-0.208333 z m -0.989583,1.510416 q -0.624999,0.15625 -0.677083,0.260416 -0.05208,0.104167 -0.104166,0.260417 -0.46875,-0.416667 -0.520833,-0.416667 0,0 0,-0.104166 0.208333,-0.104167 0.364583,-0.15625 0.208333,-0.104167 0.46875,-0.104167 z m 2.864582,3.593748 q -0.625,0.104166 -0.729166,0.260416 -0.05208,0.15625 -0.15625,0.260417 -0.260417,-0.15625 -0.104167,-0.260417 0.208333,-0.104166 0.208333,-0.364583 0.3125,0.104167 0.416667,0 0.15625,-0.104167 0.364583,0.104167 z"
         style="font-family:'Fredericka the Great';-inkscape-font-specification:'Fredericka the Great'"
         id="path1017" />
    </g>
    <text
       xml:space="preserve"
       style="font-size:24px;fill:#000000"
       x="50.831055"
       y="40.078564"
       id="text190"><tspan
         sodipodi:role="line"
         id="tspan188"
         x="50.831055"
         y="40.078564"
         style="font-style:normal;font-variant:normal;font-weight:normal;font-stretch:normal;font-size:24px;font-family:Alegreya;-inkscape-font-specification:Alegreya"><tspan
           style="font-size:32px"
           id="tspan502">astActive</tspan><tspan
           style="font-size:10.6667px;fill:#666666"
           id="tspan296">.com</tspan></tspan></text>
  </g>
</svg>
